<svg width="906" height="104" viewBox="0 0 906 104" fill="none" xmlns="http://www.w3.org/2000/svg">
<rect x="0.5" y="0.5" width="905" height="95" rx="7.5" fill="black" stroke="#D5D9E2"/>
<g opacity="0.3">
<path d="M130 49.875C130 56.7786 135.596 62.375 142.5 62.375C149.404 62.375 155 56.7786 155 49.875C155 42.9714 149.404 37.375 142.5 37.375C135.596 37.375 130 42.9714 130 49.875Z" fill="white"/>
<path d="M155 74.875H130C123.096 74.875 117.5 80.4714 117.5 87.375V93.625H167.5V87.375C167.5 80.4714 161.904 74.875 155 74.875Z" fill="white"/>
<path fill-rule="evenodd" clip-rule="evenodd" d="M142.5 39.7187C148.109 39.7187 152.656 44.2659 152.656 49.875C152.656 55.4841 148.109 60.0312 142.5 60.0312C136.891 60.0312 132.344 55.4841 132.344 49.875C132.344 44.2659 136.891 39.7187 142.5 39.7187ZM157.344 49.875C157.344 41.677 150.698 35.0312 142.5 35.0312C134.302 35.0312 127.656 41.677 127.656 49.875C127.656 58.073 134.302 64.7187 142.5 64.7187C150.698 64.7187 157.344 58.073 157.344 49.875ZM169.844 87.375C169.844 79.177 163.198 72.5312 155 72.5312H130C121.802 72.5312 115.156 79.177 115.156 87.375V93.625C115.156 94.9194 116.206 95.9687 117.5 95.9687H167.5C168.794 95.9687 169.844 94.9194 169.844 93.625V87.375ZM155 77.2187C160.609 77.2187 165.156 81.7659 165.156 87.375V91.2812H119.844V87.375C119.844 81.7659 124.391 77.2187 130 77.2187H155Z" fill="white"/>
</g>
<g opacity="0.3">
<path d="M61 34.875C61 41.7786 66.5964 47.375 73.5 47.375C80.4036 47.375 86 41.7786 86 34.875C86 27.9714 80.4036 22.375 73.5 22.375C66.5964 22.375 61 27.9714 61 34.875Z" fill="white"/>
<path d="M86 59.875H61C54.0964 59.875 48.5 65.4714 48.5 72.375V78.625H98.5V72.375C98.5 65.4714 92.9036 59.875 86 59.875Z" fill="white"/>
<path fill-rule="evenodd" clip-rule="evenodd" d="M73.5 24.7187C79.1091 24.7187 83.6563 29.2659 83.6563 34.875C83.6563 40.4841 79.1091 45.0312 73.5 45.0312C67.8909 45.0312 63.3438 40.4841 63.3438 34.875C63.3438 29.2659 67.8909 24.7187 73.5 24.7187ZM88.3438 34.875C88.3438 26.677 81.698 20.0312 73.5 20.0312C65.302 20.0312 58.6563 26.677 58.6563 34.875C58.6563 43.073 65.302 49.7187 73.5 49.7187C81.698 49.7187 88.3438 43.073 88.3438 34.875ZM100.844 72.375C100.844 64.177 94.198 57.5312 86 57.5312H61C52.802 57.5312 46.1563 64.177 46.1563 72.375V78.625C46.1563 79.9194 47.2056 80.9687 48.5 80.9687H98.5C99.7944 80.9687 100.844 79.9194 100.844 78.625V72.375ZM86 62.2187C91.6091 62.2187 96.1563 66.7659 96.1563 72.375V76.2812H50.8438V72.375C50.8438 66.7659 55.3909 62.2187 61 62.2187H86Z" fill="white"/>
</g>
<g opacity="0.23">
<path d="M700 50.875C700 57.7786 694.404 63.375 687.5 63.375C680.596 63.375 675 57.7786 675 50.875C675 43.9714 680.596 38.375 687.5 38.375C694.404 38.375 700 43.9714 700 50.875Z" fill="white"/>
<path d="M675 75.875H700C706.904 75.875 712.5 81.4714 712.5 88.375V94.625H662.5V88.375C662.5 81.4714 668.096 75.875 675 75.875Z" fill="white"/>
<path fill-rule="evenodd" clip-rule="evenodd" d="M687.5 40.7187C681.891 40.7187 677.344 45.2659 677.344 50.875C677.344 56.4841 681.891 61.0312 687.5 61.0312C693.109 61.0312 697.656 56.4841 697.656 50.875C697.656 45.2659 693.109 40.7187 687.5 40.7187ZM672.656 50.875C672.656 42.677 679.302 36.0312 687.5 36.0312C695.698 36.0312 702.344 42.677 702.344 50.875C702.344 59.073 695.698 65.7187 687.5 65.7187C679.302 65.7187 672.656 59.073 672.656 50.875ZM660.156 88.375C660.156 80.177 666.802 73.5312 675 73.5312H700C708.198 73.5312 714.844 80.177 714.844 88.375V94.625C714.844 95.9194 713.794 96.9687 712.5 96.9687H662.5C661.206 96.9687 660.156 95.9194 660.156 94.625V88.375ZM675 78.2187C669.391 78.2187 664.844 82.7659 664.844 88.375V92.2812H710.156V88.375C710.156 82.7659 705.609 78.2187 700 78.2187H675Z" fill="white"/>
</g>
<g opacity="0.23">
<path d="M775 50.875C775 57.7786 769.404 63.375 762.5 63.375C755.596 63.375 750 57.7786 750 50.875C750 43.9714 755.596 38.375 762.5 38.375C769.404 38.375 775 43.9714 775 50.875Z" fill="white"/>
<path d="M750 75.875H775C781.904 75.875 787.5 81.4714 787.5 88.375V94.625H737.5V88.375C737.5 81.4714 743.096 75.875 750 75.875Z" fill="white"/>
<path fill-rule="evenodd" clip-rule="evenodd" d="M762.5 40.7187C756.891 40.7187 752.344 45.2659 752.344 50.875C752.344 56.4841 756.891 61.0312 762.5 61.0312C768.109 61.0312 772.656 56.4841 772.656 50.875C772.656 45.2659 768.109 40.7187 762.5 40.7187ZM747.656 50.875C747.656 42.677 754.302 36.0312 762.5 36.0312C770.698 36.0312 777.344 42.677 777.344 50.875C777.344 59.073 770.698 65.7187 762.5 65.7187C754.302 65.7187 747.656 59.073 747.656 50.875ZM735.156 88.375C735.156 80.177 741.802 73.5312 750 73.5312H775C783.198 73.5312 789.844 80.177 789.844 88.375V94.625C789.844 95.9194 788.794 96.9687 787.5 96.9687H737.5C736.206 96.9687 735.156 95.9194 735.156 94.625V88.375ZM750 78.2187C744.391 78.2187 739.844 82.7659 739.844 88.375V92.2812H785.156V88.375C785.156 82.7659 780.609 78.2187 775 78.2187H750Z" fill="white"/>
</g>
<g opacity="0.23">
<path d="M850 50.875C850 57.7786 844.404 63.375 837.5 63.375C830.596 63.375 825 57.7786 825 50.875C825 43.9714 830.596 38.375 837.5 38.375C844.404 38.375 850 43.9714 850 50.875Z" fill="white"/>
<path d="M825 75.875H850C856.904 75.875 862.5 81.4714 862.5 88.375V94.625H812.5V88.375C812.5 81.4714 818.096 75.875 825 75.875Z" fill="white"/>
<path fill-rule="evenodd" clip-rule="evenodd" d="M837.5 40.7187C831.891 40.7187 827.344 45.2659 827.344 50.875C827.344 56.4841 831.891 61.0312 837.5 61.0312C843.109 61.0312 847.656 56.4841 847.656 50.875C847.656 45.2659 843.109 40.7187 837.5 40.7187ZM822.656 50.875C822.656 42.677 829.302 36.0312 837.5 36.0312C845.698 36.0312 852.344 42.677 852.344 50.875C852.344 59.073 845.698 65.7187 837.5 65.7187C829.302 65.7187 822.656 59.073 822.656 50.875ZM810.156 88.375C810.156 80.177 816.802 73.5312 825 73.5312H850C858.198 73.5312 864.844 80.177 864.844 88.375V94.625C864.844 95.9194 863.794 96.9687 862.5 96.9687H812.5C811.206 96.9687 810.156 95.9194 810.156 94.625V88.375ZM825 78.2187C819.391 78.2187 814.844 82.7659 814.844 88.375V92.2812H860.156V88.375C860.156 82.7659 855.609 78.2187 850 78.2187H825Z" fill="white"/>
</g>
</svg>
